com/noon/hackathon/bitsnbytes/service/DashboardService.class
com/noon/hackathon/bitsnbytes/dto/NotesDTO$NotesDTOBuilder.class
com/noon/hackathon/bitsnbytes/dto/PrivacyOptions.class
com/noon/hackathon/bitsnbytes/resource/DashboardResource.class
com/noon/hackathon/bitsnbytes/resource/NotesResource.class
com/noon/hackathon/bitsnbytes/dao/NotesDao.class
com/noon/hackathon/bitsnbytes/service/NotesService.class
com/noon/hackathon/bitsnbytes/dao/DashboardDao$1.class
com/noon/hackathon/bitsnbytes/config/StickyNotesConfig.class
com/noon/hackathon/bitsnbytes/dao/NotesDao$1.class
com/noon/hackathon/bitsnbytes/dto/DashboardDTO.class
com/noon/hackathon/bitsnbytes/StickyNotesApplication.class
com/noon/hackathon/bitsnbytes/dto/DashboardDTO$DashboardDTOBuilder.class
com/noon/hackathon/bitsnbytes/dto/NotesDTO.class
com/noon/hackathon/bitsnbytes/dao/DashboardDao.class
